…
from here, we can identify the country and year with the highest and
lowest cases per 100k:

``` r
max_year = max(tuberculosis_100k_year$cases_per_100k)
min_year = min(tuberculosis_100k_year$cases_per_100k)


tuberculosis_100k_year %>% 
  filter(cases_per_100k == max_year | cases_per_100k == min_year) %>%
  arrange(desc(cases_per_100k))
```

    ## # A tibble: 49 × 3
    ## # Groups:   country [17]
    ##    country                            year cases_per_100k
    ##    <chr>                             <dbl>          <dbl>
    ##  1 Niue                               2011           70.1
    ##  2 Anguilla                           2004            0  
    ##  3 Anguilla                           2011            0  
    ##  4 Anguilla                           2012            0  
    ##  5 Anguilla                           2013            0  
    ##  6 Barbados                           2011            0  
    ##  7 Barbados                           2012            0  
    ##  8 Bermuda                            2004            0  
    ##  9 Bermuda                            2013            0  
    ## 10 Bonaire, Saint Eustatius and Saba  2010            0  
    ## # ℹ 39 more rows
…
