DataMiningAndWrangling_FA1_KHAFAJI
================

# Lecture 2

## Case Study: Diamonds

``` r
diamonds
```

    ## # A tibble: 53,940 × 10
    ##    carat cut       color clarity depth table price     x     y     z
    ##    <dbl> <ord>     <ord> <ord>   <dbl> <dbl> <int> <dbl> <dbl> <dbl>
    ##  1  0.23 Ideal     E     SI2      61.5    55   326  3.95  3.98  2.43
    ##  2  0.21 Premium   E     SI1      59.8    61   326  3.89  3.84  2.31
    ##  3  0.23 Good      E     VS1      56.9    65   327  4.05  4.07  2.31
    ##  4  0.29 Premium   I     VS2      62.4    58   334  4.2   4.23  2.63
    ##  5  0.31 Good      J     SI2      63.3    58   335  4.34  4.35  2.75
    ##  6  0.24 Very Good J     VVS2     62.8    57   336  3.94  3.96  2.48
    ##  7  0.24 Very Good I     VVS1     62.3    57   336  3.95  3.98  2.47
    ##  8  0.26 Very Good H     SI1      61.9    55   337  4.07  4.11  2.53
    ##  9  0.22 Fair      E     VS2      65.1    61   337  3.87  3.78  2.49
    ## 10  0.23 Very Good H     VS1      59.4    61   338  4     4.05  2.39
    ## # ℹ 53,930 more rows
…
Note that horizontal and vertical lines may be added to plots using
geom_hline() and geom_vline(), respectively. Check out the details via
?geom_hline.

#### One to One

``` r
avg_price_by_carat <- diamonds %>%
  mutate(carat = round(carat, 1)) %>%
  group_by(carat) %>%
  summarise(avg_price = mean(price))
avg_price_by_carat
```

    ## # A tibble: 38 × 2
    ##    carat avg_price
    ##    <dbl>     <dbl>
    ##  1   0.2      506.
    ##  2   0.3      709.
    ##  3   0.4      936.
    ##  4   0.5     1590.
    ##  5   0.6     1861.
    ##  6   0.7     2619.
    ##  7   0.8     2998.
    ##  8   0.9     3942.
    ##  9   1       5437.
    ## 10   1.1     6011.
    ## # ℹ 28 more rows
…
